('D:\\python\\ssh\\build\\ssh\\PKG-00.pkg',
 {'BINARY': 1,
  'DATA': 1,
  'EXECUTABLE': 1,
  'EXTENSION': 1,
  'PYMODULE': 1,
  'PYSOURCE': 1,
  'PYZ': 0},
 [('PYZ-00.pyz', 'D:\\python\\ssh\\build\\ssh\\PYZ-00.pyz', 'PYZ'),
  ('struct',
   'c:\\users\\vasiliy.vdovichenko\\appdata\\local\\programs\\python\\python37-32\\lib\\struct.pyo',
   'PYMODULE'),
  ('pyimod01_os_path',
   'c:\\users\\vasiliy.vdovichenko\\appdata\\local\\programs\\python\\python37-32\\lib\\site-packages\\PyInstaller\\loader\\pyimod01_os_path.pyc',
   'PYMODULE'),
  ('pyimod02_archive',
   'c:\\users\\vasiliy.vdovichenko\\appdata\\local\\programs\\python\\python37-32\\lib\\site-packages\\PyInstaller\\loader\\pyimod02_archive.pyc',
   'PYMODULE'),
  ('pyimod03_importers',
   'c:\\users\\vasiliy.vdovichenko\\appdata\\local\\programs\\python\\python37-32\\lib\\site-packages\\PyInstaller\\loader\\pyimod03_importers.pyc',
   'PYMODULE'),
  ('pyiboot01_bootstrap',
   'c:\\users\\vasiliy.vdovichenko\\appdata\\local\\programs\\python\\python37-32\\lib\\site-packages\\PyInstaller\\loader\\pyiboot01_bootstrap.py',
   'PYSOURCE'),
  ('pyi_rth_multiprocessing',
   'c:\\users\\vasiliy.vdovichenko\\appdata\\local\\programs\\python\\python37-32\\lib\\site-packages\\PyInstaller\\loader\\rthooks\\pyi_rth_multiprocessing.py',
   'PYSOURCE'),
  ('ssh', 'D:\\python\\ssh\\ssh.py', 'PYSOURCE'),
  ('VCRUNTIME140.dll',
   'c:\\users\\vasiliy.vdovichenko\\appdata\\local\\programs\\python\\python37-32\\VCRUNTIME140.dll',
   'BINARY'),
  ('python37.dll',
   'c:\\users\\vasiliy.vdovichenko\\appdata\\local\\programs\\python\\python37-32\\python37.dll',
   'BINARY'),
  ('_contextvars',
   'c:\\users\\vasiliy.vdovichenko\\appdata\\local\\programs\\python\\python37-32\\DLLs\\_contextvars.pyd',
   'EXTENSION'),
  ('_decimal',
   'c:\\users\\vasiliy.vdovichenko\\appdata\\local\\programs\\python\\python37-32\\DLLs\\_decimal.pyd',
   'EXTENSION'),
  ('_ctypes',
   'c:\\users\\vasiliy.vdovichenko\\appdata\\local\\programs\\python\\python37-32\\DLLs\\_ctypes.pyd',
   'EXTENSION'),
  ('_queue',
   'c:\\users\\vasiliy.vdovichenko\\appdata\\local\\programs\\python\\python37-32\\DLLs\\_queue.pyd',
   'EXTENSION'),
  ('_multiprocessing',
   'c:\\users\\vasiliy.vdovichenko\\appdata\\local\\programs\\python\\python37-32\\DLLs\\_multiprocessing.pyd',
   'EXTENSION'),
  ('_ssl',
   'c:\\users\\vasiliy.vdovichenko\\appdata\\local\\programs\\python\\python37-32\\DLLs\\_ssl.pyd',
   'EXTENSION'),
  ('unicodedata',
   'c:\\users\\vasiliy.vdovichenko\\appdata\\local\\programs\\python\\python37-32\\DLLs\\unicodedata.pyd',
   'EXTENSION'),
  ('pyexpat',
   'c:\\users\\vasiliy.vdovichenko\\appdata\\local\\programs\\python\\python37-32\\DLLs\\pyexpat.pyd',
   'EXTENSION'),
  ('_hashlib',
   'c:\\users\\vasiliy.vdovichenko\\appdata\\local\\programs\\python\\python37-32\\DLLs\\_hashlib.pyd',
   'EXTENSION'),
  ('_bz2',
   'c:\\users\\vasiliy.vdovichenko\\appdata\\local\\programs\\python\\python37-32\\DLLs\\_bz2.pyd',
   'EXTENSION'),
  ('_lzma',
   'c:\\users\\vasiliy.vdovichenko\\appdata\\local\\programs\\python\\python37-32\\DLLs\\_lzma.pyd',
   'EXTENSION'),
  ('_socket',
   'c:\\users\\vasiliy.vdovichenko\\appdata\\local\\programs\\python\\python37-32\\DLLs\\_socket.pyd',
   'EXTENSION'),
  ('select',
   'c:\\users\\vasiliy.vdovichenko\\appdata\\local\\programs\\python\\python37-32\\DLLs\\select.pyd',
   'EXTENSION'),
  ('_cffi_backend',
   'c:\\users\\vasiliy.vdovichenko\\appdata\\local\\programs\\python\\python37-32\\lib\\site-packages\\_cffi_backend.cp37-win32.pyd',
   'EXTENSION'),
  ('cryptography.hazmat.bindings._openssl',
   'c:\\users\\vasiliy.vdovichenko\\appdata\\local\\programs\\python\\python37-32\\lib\\site-packages\\cryptography\\hazmat\\bindings\\_openssl.cp37-win32.pyd',
   'EXTENSION'),
  ('cryptography.hazmat.bindings._constant_time',
   'c:\\users\\vasiliy.vdovichenko\\appdata\\local\\programs\\python\\python37-32\\lib\\site-packages\\cryptography\\hazmat\\bindings\\_constant_time.cp37-win32.pyd',
   'EXTENSION'),
  ('nacl._sodium',
   'c:\\users\\vasiliy.vdovichenko\\appdata\\local\\programs\\python\\python37-32\\lib\\site-packages\\nacl\\_sodium.cp37-win32.pyd',
   'EXTENSION'),
  ('bcrypt._bcrypt',
   'c:\\users\\vasiliy.vdovichenko\\appdata\\local\\programs\\python\\python37-32\\lib\\site-packages\\bcrypt\\_bcrypt.cp37-win32.pyd',
   'EXTENSION'),
  ('libssl-1_1.dll',
   'c:\\users\\vasiliy.vdovichenko\\appdata\\local\\programs\\python\\python37-32\\DLLs\\libssl-1_1.dll',
   'BINARY'),
  ('libcrypto-1_1.dll',
   'c:\\users\\vasiliy.vdovichenko\\appdata\\local\\programs\\python\\python37-32\\DLLs\\libcrypto-1_1.dll',
   'BINARY'),
  ('base_library.zip', 'D:\\python\\ssh\\build\\ssh\\base_library.zip', 'DATA'),
  ('cryptography-2.4.2-py3.7.egg-info\\METADATA',
   'c:\\users\\vasiliy.vdovichenko\\appdata\\local\\programs\\python\\python37-32\\lib\\site-packages\\cryptography-2.4.2.dist-info\\METADATA',
   'DATA'),
  ('cryptography-2.4.2-py3.7.egg-info\\LICENSE.APACHE',
   'c:\\users\\vasiliy.vdovichenko\\appdata\\local\\programs\\python\\python37-32\\lib\\site-packages\\cryptography-2.4.2.dist-info\\LICENSE.APACHE',
   'DATA'),
  ('cryptography-2.4.2-py3.7.egg-info\\top_level.txt',
   'c:\\users\\vasiliy.vdovichenko\\appdata\\local\\programs\\python\\python37-32\\lib\\site-packages\\cryptography-2.4.2.dist-info\\top_level.txt',
   'DATA'),
  ('cryptography-2.4.2-py3.7.egg-info\\INSTALLER',
   'c:\\users\\vasiliy.vdovichenko\\appdata\\local\\programs\\python\\python37-32\\lib\\site-packages\\cryptography-2.4.2.dist-info\\INSTALLER',
   'DATA'),
  ('cryptography-2.4.2-py3.7.egg-info\\WHEEL',
   'c:\\users\\vasiliy.vdovichenko\\appdata\\local\\programs\\python\\python37-32\\lib\\site-packages\\cryptography-2.4.2.dist-info\\WHEEL',
   'DATA'),
  ('cryptography-2.4.2-py3.7.egg-info\\AUTHORS.rst',
   'c:\\users\\vasiliy.vdovichenko\\appdata\\local\\programs\\python\\python37-32\\lib\\site-packages\\cryptography-2.4.2.dist-info\\AUTHORS.rst',
   'DATA'),
  ('cryptography-2.4.2-py3.7.egg-info\\LICENSE.BSD',
   'c:\\users\\vasiliy.vdovichenko\\appdata\\local\\programs\\python\\python37-32\\lib\\site-packages\\cryptography-2.4.2.dist-info\\LICENSE.BSD',
   'DATA'),
  ('cryptography-2.4.2-py3.7.egg-info\\RECORD',
   'c:\\users\\vasiliy.vdovichenko\\appdata\\local\\programs\\python\\python37-32\\lib\\site-packages\\cryptography-2.4.2.dist-info\\RECORD',
   'DATA'),
  ('cryptography-2.4.2-py3.7.egg-info\\LICENSE',
   'c:\\users\\vasiliy.vdovichenko\\appdata\\local\\programs\\python\\python37-32\\lib\\site-packages\\cryptography-2.4.2.dist-info\\LICENSE',
   'DATA'),
  ('ssh.exe.manifest',
   'D:\\python\\ssh\\build\\ssh\\ssh.exe.manifest',
   'BINARY'),
  ('pyi-windows-manifest-filename ssh.exe.manifest', '', 'OPTION')],
 False,
 False,
 False)
