('D:\\python\\ssh\\build\\ssh\\PYZ-00.pyz',
 [('multiprocessing.popen_fork',
   'c:\\users\\vasiliy.vdovichenko\\appdata\\local\\programs\\python\\python37-32\\lib\\multiprocessing\\popen_fork.py',
   'PYMODULE'),
  ('multiprocessing.connection',
   'c:\\users\\vasiliy.vdovichenko\\appdata\\local\\programs\\python\\python37-32\\lib\\multiprocessing\\connection.py',
   'PYMODULE'),
  ('multiprocessing.resource_sharer',
   'c:\\users\\vasiliy.vdovichenko\\appdata\\local\\programs\\python\\python37-32\\lib\\multiprocessing\\resource_sharer.py',
   'PYMODULE'),
  ('multiprocessing.process',
   'c:\\users\\vasiliy.vdovichenko\\appdata\\local\\programs\\python\\python37-32\\lib\\multiprocessing\\process.py',
   'PYMODULE'),
  ('xmlrpc.client',
   'c:\\users\\vasiliy.vdovichenko\\appdata\\local\\programs\\python\\python37-32\\lib\\xmlrpc\\client.py',
   'PYMODULE'),
  ('xmlrpc',
   'c:\\users\\vasiliy.vdovichenko\\appdata\\local\\programs\\python\\python37-32\\lib\\xmlrpc\\__init__.py',
   'PYMODULE'),
  ('decimal',
   'c:\\users\\vasiliy.vdovichenko\\appdata\\local\\programs\\python\\python37-32\\lib\\decimal.py',
   'PYMODULE'),
  ('_pydecimal',
   'c:\\users\\vasiliy.vdovichenko\\appdata\\local\\programs\\python\\python37-32\\lib\\_pydecimal.py',
   'PYMODULE'),
  ('contextvars',
   'c:\\users\\vasiliy.vdovichenko\\appdata\\local\\programs\\python\\python37-32\\lib\\contextvars.py',
   'PYMODULE'),
  ('numbers',
   'c:\\users\\vasiliy.vdovichenko\\appdata\\local\\programs\\python\\python37-32\\lib\\numbers.py',
   'PYMODULE'),
  ('hmac',
   'c:\\users\\vasiliy.vdovichenko\\appdata\\local\\programs\\python\\python37-32\\lib\\hmac.py',
   'PYMODULE'),
  ('multiprocessing.context',
   'c:\\users\\vasiliy.vdovichenko\\appdata\\local\\programs\\python\\python37-32\\lib\\multiprocessing\\context.py',
   'PYMODULE'),
  ('multiprocessing.popen_forkserver',
   'c:\\users\\vasiliy.vdovichenko\\appdata\\local\\programs\\python\\python37-32\\lib\\multiprocessing\\popen_forkserver.py',
   'PYMODULE'),
  ('multiprocessing.popen_spawn_posix',
   'c:\\users\\vasiliy.vdovichenko\\appdata\\local\\programs\\python\\python37-32\\lib\\multiprocessing\\popen_spawn_posix.py',
   'PYMODULE'),
  ('multiprocessing.semaphore_tracker',
   'c:\\users\\vasiliy.vdovichenko\\appdata\\local\\programs\\python\\python37-32\\lib\\multiprocessing\\semaphore_tracker.py',
   'PYMODULE'),
  ('multiprocessing.forkserver',
   'c:\\users\\vasiliy.vdovichenko\\appdata\\local\\programs\\python\\python37-32\\lib\\multiprocessing\\forkserver.py',
   'PYMODULE'),
  ('multiprocessing.sharedctypes',
   'c:\\users\\vasiliy.vdovichenko\\appdata\\local\\programs\\python\\python37-32\\lib\\multiprocessing\\sharedctypes.py',
   'PYMODULE'),
  ('multiprocessing.heap',
   'c:\\users\\vasiliy.vdovichenko\\appdata\\local\\programs\\python\\python37-32\\lib\\multiprocessing\\heap.py',
   'PYMODULE'),
  ('ctypes',
   'c:\\users\\vasiliy.vdovichenko\\appdata\\local\\programs\\python\\python37-32\\lib\\ctypes\\__init__.py',
   'PYMODULE'),
  ('ctypes._endian',
   'c:\\users\\vasiliy.vdovichenko\\appdata\\local\\programs\\python\\python37-32\\lib\\ctypes\\_endian.py',
   'PYMODULE'),
  ('multiprocessing.pool',
   'c:\\users\\vasiliy.vdovichenko\\appdata\\local\\programs\\python\\python37-32\\lib\\multiprocessing\\pool.py',
   'PYMODULE'),
  ('queue',
   'c:\\users\\vasiliy.vdovichenko\\appdata\\local\\programs\\python\\python37-32\\lib\\queue.py',
   'PYMODULE'),
  ('multiprocessing.queues',
   'c:\\users\\vasiliy.vdovichenko\\appdata\\local\\programs\\python\\python37-32\\lib\\multiprocessing\\queues.py',
   'PYMODULE'),
  ('multiprocessing.synchronize',
   'c:\\users\\vasiliy.vdovichenko\\appdata\\local\\programs\\python\\python37-32\\lib\\multiprocessing\\synchronize.py',
   'PYMODULE'),
  ('multiprocessing.managers',
   'c:\\users\\vasiliy.vdovichenko\\appdata\\local\\programs\\python\\python37-32\\lib\\multiprocessing\\managers.py',
   'PYMODULE'),
  ('multiprocessing.reduction',
   'c:\\users\\vasiliy.vdovichenko\\appdata\\local\\programs\\python\\python37-32\\lib\\multiprocessing\\reduction.py',
   'PYMODULE'),
  ('multiprocessing.util',
   'c:\\users\\vasiliy.vdovichenko\\appdata\\local\\programs\\python\\python37-32\\lib\\multiprocessing\\util.py',
   'PYMODULE'),
  ('multiprocessing.popen_spawn_win32',
   'c:\\users\\vasiliy.vdovichenko\\appdata\\local\\programs\\python\\python37-32\\lib\\multiprocessing\\popen_spawn_win32.py',
   'PYMODULE'),
  ('multiprocessing.spawn',
   'c:\\users\\vasiliy.vdovichenko\\appdata\\local\\programs\\python\\python37-32\\lib\\multiprocessing\\spawn.py',
   'PYMODULE'),
  ('ntpath',
   'c:\\users\\vasiliy.vdovichenko\\appdata\\local\\programs\\python\\python37-32\\lib\\ntpath.py',
   'PYMODULE'),
  ('_strptime',
   'c:\\users\\vasiliy.vdovichenko\\appdata\\local\\programs\\python\\python37-32\\lib\\_strptime.py',
   'PYMODULE'),
  ('typing',
   'c:\\users\\vasiliy.vdovichenko\\appdata\\local\\programs\\python\\python37-32\\lib\\typing.py',
   'PYMODULE'),
  ('tracemalloc',
   'c:\\users\\vasiliy.vdovichenko\\appdata\\local\\programs\\python\\python37-32\\lib\\tracemalloc.py',
   'PYMODULE'),
  ('stringprep',
   'c:\\users\\vasiliy.vdovichenko\\appdata\\local\\programs\\python\\python37-32\\lib\\stringprep.py',
   'PYMODULE'),
  ('_py_abc',
   'c:\\users\\vasiliy.vdovichenko\\appdata\\local\\programs\\python\\python37-32\\lib\\_py_abc.py',
   'PYMODULE'),
  ('__future__',
   'c:\\users\\vasiliy.vdovichenko\\appdata\\local\\programs\\python\\python37-32\\lib\\__future__.py',
   'PYMODULE'),
  ('difflib',
   'c:\\users\\vasiliy.vdovichenko\\appdata\\local\\programs\\python\\python37-32\\lib\\difflib.py',
   'PYMODULE'),
  ('ast',
   'c:\\users\\vasiliy.vdovichenko\\appdata\\local\\programs\\python\\python37-32\\lib\\ast.py',
   'PYMODULE'),
  ('inspect',
   'c:\\users\\vasiliy.vdovichenko\\appdata\\local\\programs\\python\\python37-32\\lib\\inspect.py',
   'PYMODULE'),
  ('cmd',
   'c:\\users\\vasiliy.vdovichenko\\appdata\\local\\programs\\python\\python37-32\\lib\\cmd.py',
   'PYMODULE'),
  ('bdb',
   'c:\\users\\vasiliy.vdovichenko\\appdata\\local\\programs\\python\\python37-32\\lib\\bdb.py',
   'PYMODULE'),
  ('opcode',
   'c:\\users\\vasiliy.vdovichenko\\appdata\\local\\programs\\python\\python37-32\\lib\\opcode.py',
   'PYMODULE'),
  ('dis',
   'c:\\users\\vasiliy.vdovichenko\\appdata\\local\\programs\\python\\python37-32\\lib\\dis.py',
   'PYMODULE'),
  ('codeop',
   'c:\\users\\vasiliy.vdovichenko\\appdata\\local\\programs\\python\\python37-32\\lib\\codeop.py',
   'PYMODULE'),
  ('code',
   'c:\\users\\vasiliy.vdovichenko\\appdata\\local\\programs\\python\\python37-32\\lib\\code.py',
   'PYMODULE'),
  ('glob',
   'c:\\users\\vasiliy.vdovichenko\\appdata\\local\\programs\\python\\python37-32\\lib\\glob.py',
   'PYMODULE'),
  ('shlex',
   'c:\\users\\vasiliy.vdovichenko\\appdata\\local\\programs\\python\\python37-32\\lib\\shlex.py',
   'PYMODULE'),
  ('runpy',
   'c:\\users\\vasiliy.vdovichenko\\appdata\\local\\programs\\python\\python37-32\\lib\\runpy.py',
   'PYMODULE'),
  ('importlib._bootstrap',
   'c:\\users\\vasiliy.vdovichenko\\appdata\\local\\programs\\python\\python37-32\\lib\\importlib\\_bootstrap.py',
   'PYMODULE'),
  ('importlib._bootstrap_external',
   'c:\\users\\vasiliy.vdovichenko\\appdata\\local\\programs\\python\\python37-32\\lib\\importlib\\_bootstrap_external.py',
   'PYMODULE'),
  ('importlib.machinery',
   'c:\\users\\vasiliy.vdovichenko\\appdata\\local\\programs\\python\\python37-32\\lib\\importlib\\machinery.py',
   'PYMODULE'),
  ('importlib.util',
   'c:\\users\\vasiliy.vdovichenko\\appdata\\local\\programs\\python\\python37-32\\lib\\importlib\\util.py',
   'PYMODULE'),
  ('importlib.abc',
   'c:\\users\\vasiliy.vdovichenko\\appdata\\local\\programs\\python\\python37-32\\lib\\importlib\\abc.py',
   'PYMODULE'),
  ('importlib',
   'c:\\users\\vasiliy.vdovichenko\\appdata\\local\\programs\\python\\python37-32\\lib\\importlib\\__init__.py',
   'PYMODULE'),
  ('pkgutil',
   'c:\\users\\vasiliy.vdovichenko\\appdata\\local\\programs\\python\\python37-32\\lib\\pkgutil.py',
   'PYMODULE'),
  ('xml',
   'c:\\users\\vasiliy.vdovichenko\\appdata\\local\\programs\\python\\python37-32\\lib\\xml\\__init__.py',
   'PYMODULE'),
  ('xml.sax.expatreader',
   'c:\\users\\vasiliy.vdovichenko\\appdata\\local\\programs\\python\\python37-32\\lib\\xml\\sax\\expatreader.py',
   'PYMODULE'),
  ('xml.sax.saxutils',
   'c:\\users\\vasiliy.vdovichenko\\appdata\\local\\programs\\python\\python37-32\\lib\\xml\\sax\\saxutils.py',
   'PYMODULE'),
  ('urllib.request',
   'c:\\users\\vasiliy.vdovichenko\\appdata\\local\\programs\\python\\python37-32\\lib\\urllib\\request.py',
   'PYMODULE'),
  ('getpass',
   'c:\\users\\vasiliy.vdovichenko\\appdata\\local\\programs\\python\\python37-32\\lib\\getpass.py',
   'PYMODULE'),
  ('nturl2path',
   'c:\\users\\vasiliy.vdovichenko\\appdata\\local\\programs\\python\\python37-32\\lib\\nturl2path.py',
   'PYMODULE'),
  ('ftplib',
   'c:\\users\\vasiliy.vdovichenko\\appdata\\local\\programs\\python\\python37-32\\lib\\ftplib.py',
   'PYMODULE'),
  ('netrc',
   'c:\\users\\vasiliy.vdovichenko\\appdata\\local\\programs\\python\\python37-32\\lib\\netrc.py',
   'PYMODULE'),
  ('http.cookiejar',
   'c:\\users\\vasiliy.vdovichenko\\appdata\\local\\programs\\python\\python37-32\\lib\\http\\cookiejar.py',
   'PYMODULE'),
  ('urllib.response',
   'c:\\users\\vasiliy.vdovichenko\\appdata\\local\\programs\\python\\python37-32\\lib\\urllib\\response.py',
   'PYMODULE'),
  ('urllib.error',
   'c:\\users\\vasiliy.vdovichenko\\appdata\\local\\programs\\python\\python37-32\\lib\\urllib\\error.py',
   'PYMODULE'),
  ('xml.sax',
   'c:\\users\\vasiliy.vdovichenko\\appdata\\local\\programs\\python\\python37-32\\lib\\xml\\sax\\__init__.py',
   'PYMODULE'),
  ('xml.sax.handler',
   'c:\\users\\vasiliy.vdovichenko\\appdata\\local\\programs\\python\\python37-32\\lib\\xml\\sax\\handler.py',
   'PYMODULE'),
  ('xml.sax._exceptions',
   'c:\\users\\vasiliy.vdovichenko\\appdata\\local\\programs\\python\\python37-32\\lib\\xml\\sax\\_exceptions.py',
   'PYMODULE'),
  ('xml.sax.xmlreader',
   'c:\\users\\vasiliy.vdovichenko\\appdata\\local\\programs\\python\\python37-32\\lib\\xml\\sax\\xmlreader.py',
   'PYMODULE'),
  ('xml.parsers',
   'c:\\users\\vasiliy.vdovichenko\\appdata\\local\\programs\\python\\python37-32\\lib\\xml\\parsers\\__init__.py',
   'PYMODULE'),
  ('xml.parsers.expat',
   'c:\\users\\vasiliy.vdovichenko\\appdata\\local\\programs\\python\\python37-32\\lib\\xml\\parsers\\expat.py',
   'PYMODULE'),
  ('plistlib',
   'c:\\users\\vasiliy.vdovichenko\\appdata\\local\\programs\\python\\python37-32\\lib\\plistlib.py',
   'PYMODULE'),
  ('platform',
   'c:\\users\\vasiliy.vdovichenko\\appdata\\local\\programs\\python\\python37-32\\lib\\platform.py',
   'PYMODULE'),
  ('urllib.parse',
   'c:\\users\\vasiliy.vdovichenko\\appdata\\local\\programs\\python\\python37-32\\lib\\urllib\\parse.py',
   'PYMODULE'),
  ('tempfile',
   'c:\\users\\vasiliy.vdovichenko\\appdata\\local\\programs\\python\\python37-32\\lib\\tempfile.py',
   'PYMODULE'),
  ('tty',
   'c:\\users\\vasiliy.vdovichenko\\appdata\\local\\programs\\python\\python37-32\\lib\\tty.py',
   'PYMODULE'),
  ('pydoc_data',
   'c:\\users\\vasiliy.vdovichenko\\appdata\\local\\programs\\python\\python37-32\\lib\\pydoc_data\\__init__.py',
   'PYMODULE'),
  ('pydoc_data.topics',
   'c:\\users\\vasiliy.vdovichenko\\appdata\\local\\programs\\python\\python37-32\\lib\\pydoc_data\\topics.py',
   'PYMODULE'),
  ('html.entities',
   'c:\\users\\vasiliy.vdovichenko\\appdata\\local\\programs\\python\\python37-32\\lib\\html\\entities.py',
   'PYMODULE'),
  ('html',
   'c:\\users\\vasiliy.vdovichenko\\appdata\\local\\programs\\python\\python37-32\\lib\\html\\__init__.py',
   'PYMODULE'),
  ('ssl',
   'c:\\users\\vasiliy.vdovichenko\\appdata\\local\\programs\\python\\python37-32\\lib\\ssl.py',
   'PYMODULE'),
  ('http.client',
   'c:\\users\\vasiliy.vdovichenko\\appdata\\local\\programs\\python\\python37-32\\lib\\http\\client.py',
   'PYMODULE'),
  ('mimetypes',
   'c:\\users\\vasiliy.vdovichenko\\appdata\\local\\programs\\python\\python37-32\\lib\\mimetypes.py',
   'PYMODULE'),
  ('socketserver',
   'c:\\users\\vasiliy.vdovichenko\\appdata\\local\\programs\\python\\python37-32\\lib\\socketserver.py',
   'PYMODULE'),
  ('http',
   'c:\\users\\vasiliy.vdovichenko\\appdata\\local\\programs\\python\\python37-32\\lib\\http\\__init__.py',
   'PYMODULE'),
  ('http.server',
   'c:\\users\\vasiliy.vdovichenko\\appdata\\local\\programs\\python\\python37-32\\lib\\http\\server.py',
   'PYMODULE'),
  ('optparse',
   'c:\\users\\vasiliy.vdovichenko\\appdata\\local\\programs\\python\\python37-32\\lib\\optparse.py',
   'PYMODULE'),
  ('uu',
   'c:\\users\\vasiliy.vdovichenko\\appdata\\local\\programs\\python\\python37-32\\lib\\uu.py',
   'PYMODULE'),
  ('quopri',
   'c:\\users\\vasiliy.vdovichenko\\appdata\\local\\programs\\python\\python37-32\\lib\\quopri.py',
   'PYMODULE'),
  ('email.feedparser',
   'c:\\users\\vasiliy.vdovichenko\\appdata\\local\\programs\\python\\python37-32\\lib\\email\\feedparser.py',
   'PYMODULE'),
  ('email.parser',
   'c:\\users\\vasiliy.vdovichenko\\appdata\\local\\programs\\python\\python37-32\\lib\\email\\parser.py',
   'PYMODULE'),
  ('email',
   'c:\\users\\vasiliy.vdovichenko\\appdata\\local\\programs\\python\\python37-32\\lib\\email\\__init__.py',
   'PYMODULE'),
  ('calendar',
   'c:\\users\\vasiliy.vdovichenko\\appdata\\local\\programs\\python\\python37-32\\lib\\calendar.py',
   'PYMODULE'),
  ('email._parseaddr',
   'c:\\users\\vasiliy.vdovichenko\\appdata\\local\\programs\\python\\python37-32\\lib\\email\\_parseaddr.py',
   'PYMODULE'),
  ('email.utils',
   'c:\\users\\vasiliy.vdovichenko\\appdata\\local\\programs\\python\\python37-32\\lib\\email\\utils.py',
   'PYMODULE'),
  ('email.errors',
   'c:\\users\\vasiliy.vdovichenko\\appdata\\local\\programs\\python\\python37-32\\lib\\email\\errors.py',
   'PYMODULE'),
  ('email.header',
   'c:\\users\\vasiliy.vdovichenko\\appdata\\local\\programs\\python\\python37-32\\lib\\email\\header.py',
   'PYMODULE'),
  ('email._policybase',
   'c:\\users\\vasiliy.vdovichenko\\appdata\\local\\programs\\python\\python37-32\\lib\\email\\_policybase.py',
   'PYMODULE'),
  ('email.base64mime',
   'c:\\users\\vasiliy.vdovichenko\\appdata\\local\\programs\\python\\python37-32\\lib\\email\\base64mime.py',
   'PYMODULE'),
  ('email.encoders',
   'c:\\users\\vasiliy.vdovichenko\\appdata\\local\\programs\\python\\python37-32\\lib\\email\\encoders.py',
   'PYMODULE'),
  ('email.charset',
   'c:\\users\\vasiliy.vdovichenko\\appdata\\local\\programs\\python\\python37-32\\lib\\email\\charset.py',
   'PYMODULE'),
  ('base64',
   'c:\\users\\vasiliy.vdovichenko\\appdata\\local\\programs\\python\\python37-32\\lib\\base64.py',
   'PYMODULE'),
  ('email._encoded_words',
   'c:\\users\\vasiliy.vdovichenko\\appdata\\local\\programs\\python\\python37-32\\lib\\email\\_encoded_words.py',
   'PYMODULE'),
  ('hashlib',
   'c:\\users\\vasiliy.vdovichenko\\appdata\\local\\programs\\python\\python37-32\\lib\\hashlib.py',
   'PYMODULE'),
  ('bisect',
   'c:\\users\\vasiliy.vdovichenko\\appdata\\local\\programs\\python\\python37-32\\lib\\bisect.py',
   'PYMODULE'),
  ('random',
   'c:\\users\\vasiliy.vdovichenko\\appdata\\local\\programs\\python\\python37-32\\lib\\random.py',
   'PYMODULE'),
  ('email.generator',
   'c:\\users\\vasiliy.vdovichenko\\appdata\\local\\programs\\python\\python37-32\\lib\\email\\generator.py',
   'PYMODULE'),
  ('email.iterators',
   'c:\\users\\vasiliy.vdovichenko\\appdata\\local\\programs\\python\\python37-32\\lib\\email\\iterators.py',
   'PYMODULE'),
  ('urllib',
   'c:\\users\\vasiliy.vdovichenko\\appdata\\local\\programs\\python\\python37-32\\lib\\urllib\\__init__.py',
   'PYMODULE'),
  ('email._header_value_parser',
   'c:\\users\\vasiliy.vdovichenko\\appdata\\local\\programs\\python\\python37-32\\lib\\email\\_header_value_parser.py',
   'PYMODULE'),
  ('email.headerregistry',
   'c:\\users\\vasiliy.vdovichenko\\appdata\\local\\programs\\python\\python37-32\\lib\\email\\headerregistry.py',
   'PYMODULE'),
  ('email.quoprimime',
   'c:\\users\\vasiliy.vdovichenko\\appdata\\local\\programs\\python\\python37-32\\lib\\email\\quoprimime.py',
   'PYMODULE'),
  ('email.contentmanager',
   'c:\\users\\vasiliy.vdovichenko\\appdata\\local\\programs\\python\\python37-32\\lib\\email\\contentmanager.py',
   'PYMODULE'),
  ('email.policy',
   'c:\\users\\vasiliy.vdovichenko\\appdata\\local\\programs\\python\\python37-32\\lib\\email\\policy.py',
   'PYMODULE'),
  ('email.message',
   'c:\\users\\vasiliy.vdovichenko\\appdata\\local\\programs\\python\\python37-32\\lib\\email\\message.py',
   'PYMODULE'),
  ('bz2',
   'c:\\users\\vasiliy.vdovichenko\\appdata\\local\\programs\\python\\python37-32\\lib\\bz2.py',
   'PYMODULE'),
  ('lzma',
   'c:\\users\\vasiliy.vdovichenko\\appdata\\local\\programs\\python\\python37-32\\lib\\lzma.py',
   'PYMODULE'),
  ('_compression',
   'c:\\users\\vasiliy.vdovichenko\\appdata\\local\\programs\\python\\python37-32\\lib\\_compression.py',
   'PYMODULE'),
  ('gzip',
   'c:\\users\\vasiliy.vdovichenko\\appdata\\local\\programs\\python\\python37-32\\lib\\gzip.py',
   'PYMODULE'),
  ('tarfile',
   'c:\\users\\vasiliy.vdovichenko\\appdata\\local\\programs\\python\\python37-32\\lib\\tarfile.py',
   'PYMODULE'),
  ('py_compile',
   'c:\\users\\vasiliy.vdovichenko\\appdata\\local\\programs\\python\\python37-32\\lib\\py_compile.py',
   'PYMODULE'),
  ('zipfile',
   'c:\\users\\vasiliy.vdovichenko\\appdata\\local\\programs\\python\\python37-32\\lib\\zipfile.py',
   'PYMODULE'),
  ('shutil',
   'c:\\users\\vasiliy.vdovichenko\\appdata\\local\\programs\\python\\python37-32\\lib\\shutil.py',
   'PYMODULE'),
  ('socket',
   'c:\\users\\vasiliy.vdovichenko\\appdata\\local\\programs\\python\\python37-32\\lib\\socket.py',
   'PYMODULE'),
  ('webbrowser',
   'c:\\users\\vasiliy.vdovichenko\\appdata\\local\\programs\\python\\python37-32\\lib\\webbrowser.py',
   'PYMODULE'),
  ('pydoc',
   'c:\\users\\vasiliy.vdovichenko\\appdata\\local\\programs\\python\\python37-32\\lib\\pydoc.py',
   'PYMODULE'),
  ('getopt',
   'c:\\users\\vasiliy.vdovichenko\\appdata\\local\\programs\\python\\python37-32\\lib\\getopt.py',
   'PYMODULE'),
  ('pdb',
   'c:\\users\\vasiliy.vdovichenko\\appdata\\local\\programs\\python\\python37-32\\lib\\pdb.py',
   'PYMODULE'),
  ('unittest.util',
   'c:\\users\\vasiliy.vdovichenko\\appdata\\local\\programs\\python\\python37-32\\lib\\unittest\\util.py',
   'PYMODULE'),
  ('unittest.result',
   'c:\\users\\vasiliy.vdovichenko\\appdata\\local\\programs\\python\\python37-32\\lib\\unittest\\result.py',
   'PYMODULE'),
  ('string',
   'c:\\users\\vasiliy.vdovichenko\\appdata\\local\\programs\\python\\python37-32\\lib\\string.py',
   'PYMODULE'),
  ('_compat_pickle',
   'c:\\users\\vasiliy.vdovichenko\\appdata\\local\\programs\\python\\python37-32\\lib\\_compat_pickle.py',
   'PYMODULE'),
  ('pickle',
   'c:\\users\\vasiliy.vdovichenko\\appdata\\local\\programs\\python\\python37-32\\lib\\pickle.py',
   'PYMODULE'),
  ('pprint',
   'c:\\users\\vasiliy.vdovichenko\\appdata\\local\\programs\\python\\python37-32\\lib\\pprint.py',
   'PYMODULE'),
  ('unittest.case',
   'c:\\users\\vasiliy.vdovichenko\\appdata\\local\\programs\\python\\python37-32\\lib\\unittest\\case.py',
   'PYMODULE'),
  ('unittest.suite',
   'c:\\users\\vasiliy.vdovichenko\\appdata\\local\\programs\\python\\python37-32\\lib\\unittest\\suite.py',
   'PYMODULE'),
  ('fnmatch',
   'c:\\users\\vasiliy.vdovichenko\\appdata\\local\\programs\\python\\python37-32\\lib\\fnmatch.py',
   'PYMODULE'),
  ('unittest.loader',
   'c:\\users\\vasiliy.vdovichenko\\appdata\\local\\programs\\python\\python37-32\\lib\\unittest\\loader.py',
   'PYMODULE'),
  ('unittest.runner',
   'c:\\users\\vasiliy.vdovichenko\\appdata\\local\\programs\\python\\python37-32\\lib\\unittest\\runner.py',
   'PYMODULE'),
  ('unittest.main',
   'c:\\users\\vasiliy.vdovichenko\\appdata\\local\\programs\\python\\python37-32\\lib\\unittest\\main.py',
   'PYMODULE'),
  ('unittest.signals',
   'c:\\users\\vasiliy.vdovichenko\\appdata\\local\\programs\\python\\python37-32\\lib\\unittest\\signals.py',
   'PYMODULE'),
  ('unittest',
   'c:\\users\\vasiliy.vdovichenko\\appdata\\local\\programs\\python\\python37-32\\lib\\unittest\\__init__.py',
   'PYMODULE'),
  ('doctest',
   'c:\\users\\vasiliy.vdovichenko\\appdata\\local\\programs\\python\\python37-32\\lib\\doctest.py',
   'PYMODULE'),
  ('stat',
   'c:\\users\\vasiliy.vdovichenko\\appdata\\local\\programs\\python\\python37-32\\lib\\stat.py',
   'PYMODULE'),
  ('genericpath',
   'c:\\users\\vasiliy.vdovichenko\\appdata\\local\\programs\\python\\python37-32\\lib\\genericpath.py',
   'PYMODULE'),
  ('posixpath',
   'c:\\users\\vasiliy.vdovichenko\\appdata\\local\\programs\\python\\python37-32\\lib\\posixpath.py',
   'PYMODULE'),
  ('signal',
   'c:\\users\\vasiliy.vdovichenko\\appdata\\local\\programs\\python\\python37-32\\lib\\signal.py',
   'PYMODULE'),
  ('contextlib',
   'c:\\users\\vasiliy.vdovichenko\\appdata\\local\\programs\\python\\python37-32\\lib\\contextlib.py',
   'PYMODULE'),
  ('_threading_local',
   'c:\\users\\vasiliy.vdovichenko\\appdata\\local\\programs\\python\\python37-32\\lib\\_threading_local.py',
   'PYMODULE'),
  ('threading',
   'c:\\users\\vasiliy.vdovichenko\\appdata\\local\\programs\\python\\python37-32\\lib\\threading.py',
   'PYMODULE'),
  ('selectors',
   'c:\\users\\vasiliy.vdovichenko\\appdata\\local\\programs\\python\\python37-32\\lib\\selectors.py',
   'PYMODULE'),
  ('subprocess',
   'c:\\users\\vasiliy.vdovichenko\\appdata\\local\\programs\\python\\python37-32\\lib\\subprocess.py',
   'PYMODULE'),
  ('token',
   'c:\\users\\vasiliy.vdovichenko\\appdata\\local\\programs\\python\\python37-32\\lib\\token.py',
   'PYMODULE'),
  ('struct',
   'c:\\users\\vasiliy.vdovichenko\\appdata\\local\\programs\\python\\python37-32\\lib\\struct.py',
   'PYMODULE'),
  ('gettext',
   'c:\\users\\vasiliy.vdovichenko\\appdata\\local\\programs\\python\\python37-32\\lib\\gettext.py',
   'PYMODULE'),
  ('copy',
   'c:\\users\\vasiliy.vdovichenko\\appdata\\local\\programs\\python\\python37-32\\lib\\copy.py',
   'PYMODULE'),
  ('textwrap',
   'c:\\users\\vasiliy.vdovichenko\\appdata\\local\\programs\\python\\python37-32\\lib\\textwrap.py',
   'PYMODULE'),
  ('argparse',
   'c:\\users\\vasiliy.vdovichenko\\appdata\\local\\programs\\python\\python37-32\\lib\\argparse.py',
   'PYMODULE'),
  ('tokenize',
   'c:\\users\\vasiliy.vdovichenko\\appdata\\local\\programs\\python\\python37-32\\lib\\tokenize.py',
   'PYMODULE'),
  ('multiprocessing.dummy',
   'c:\\users\\vasiliy.vdovichenko\\appdata\\local\\programs\\python\\python37-32\\lib\\multiprocessing\\dummy\\__init__.py',
   'PYMODULE'),
  ('multiprocessing.dummy.connection',
   'c:\\users\\vasiliy.vdovichenko\\appdata\\local\\programs\\python\\python37-32\\lib\\multiprocessing\\dummy\\connection.py',
   'PYMODULE'),
  ('multiprocessing',
   'c:\\users\\vasiliy.vdovichenko\\appdata\\local\\programs\\python\\python37-32\\lib\\multiprocessing\\__init__.py',
   'PYMODULE'),
  ('pathlib',
   'c:\\users\\vasiliy.vdovichenko\\appdata\\local\\programs\\python\\python37-32\\lib\\pathlib.py',
   'PYMODULE'),
  ('logging',
   'c:\\users\\vasiliy.vdovichenko\\appdata\\local\\programs\\python\\python37-32\\lib\\logging\\__init__.py',
   'PYMODULE'),
  ('os',
   'c:\\users\\vasiliy.vdovichenko\\appdata\\local\\programs\\python\\python37-32\\lib\\os.py',
   'PYMODULE'),
  ('paramiko',
   'c:\\users\\vasiliy.vdovichenko\\appdata\\local\\programs\\python\\python37-32\\lib\\site-packages\\paramiko\\__init__.py',
   'PYMODULE'),
  ('paramiko.common',
   'c:\\users\\vasiliy.vdovichenko\\appdata\\local\\programs\\python\\python37-32\\lib\\site-packages\\paramiko\\common.py',
   'PYMODULE'),
  ('paramiko.py3compat',
   'c:\\users\\vasiliy.vdovichenko\\appdata\\local\\programs\\python\\python37-32\\lib\\site-packages\\paramiko\\py3compat.py',
   'PYMODULE'),
  ('paramiko.proxy',
   'c:\\users\\vasiliy.vdovichenko\\appdata\\local\\programs\\python\\python37-32\\lib\\site-packages\\paramiko\\proxy.py',
   'PYMODULE'),
  ('paramiko.config',
   'c:\\users\\vasiliy.vdovichenko\\appdata\\local\\programs\\python\\python37-32\\lib\\site-packages\\paramiko\\config.py',
   'PYMODULE'),
  ('paramiko.hostkeys',
   'c:\\users\\vasiliy.vdovichenko\\appdata\\local\\programs\\python\\python37-32\\lib\\site-packages\\paramiko\\hostkeys.py',
   'PYMODULE'),
  ('paramiko.pkey',
   'c:\\users\\vasiliy.vdovichenko\\appdata\\local\\programs\\python\\python37-32\\lib\\site-packages\\paramiko\\pkey.py',
   'PYMODULE'),
  ('cryptography.hazmat.primitives.ciphers.modes',
   'c:\\users\\vasiliy.vdovichenko\\appdata\\local\\programs\\python\\python37-32\\lib\\site-packages\\cryptography\\hazmat\\primitives\\ciphers\\modes.py',
   'PYMODULE'),
  ('cryptography.utils',
   'c:\\users\\vasiliy.vdovichenko\\appdata\\local\\programs\\python\\python37-32\\lib\\site-packages\\cryptography\\utils.py',
   'PYMODULE'),
  ('cryptography',
   'c:\\users\\vasiliy.vdovichenko\\appdata\\local\\programs\\python\\python37-32\\lib\\site-packages\\cryptography\\__init__.py',
   'PYMODULE'),
  ('cryptography.hazmat.bindings.openssl._conditional',
   'c:\\users\\vasiliy.vdovichenko\\appdata\\local\\programs\\python\\python37-32\\lib\\site-packages\\cryptography\\hazmat\\bindings\\openssl\\_conditional.py',
   'PYMODULE'),
  ('cryptography.hazmat.bindings.openssl.binding',
   'c:\\users\\vasiliy.vdovichenko\\appdata\\local\\programs\\python\\python37-32\\lib\\site-packages\\cryptography\\hazmat\\bindings\\openssl\\binding.py',
   'PYMODULE'),
  ('cryptography.hazmat.bindings',
   'c:\\users\\vasiliy.vdovichenko\\appdata\\local\\programs\\python\\python37-32\\lib\\site-packages\\cryptography\\hazmat\\bindings\\__init__.py',
   'PYMODULE'),
  ('cryptography.hazmat',
   'c:\\users\\vasiliy.vdovichenko\\appdata\\local\\programs\\python\\python37-32\\lib\\site-packages\\cryptography\\hazmat\\__init__.py',
   'PYMODULE'),
  ('cryptography.exceptions',
   'c:\\users\\vasiliy.vdovichenko\\appdata\\local\\programs\\python\\python37-32\\lib\\site-packages\\cryptography\\exceptions.py',
   'PYMODULE'),
  ('cryptography.hazmat.bindings.openssl',
   'c:\\users\\vasiliy.vdovichenko\\appdata\\local\\programs\\python\\python37-32\\lib\\site-packages\\cryptography\\hazmat\\bindings\\openssl\\__init__.py',
   'PYMODULE'),
  ('cryptography.hazmat.backends.openssl.dsa',
   'c:\\users\\vasiliy.vdovichenko\\appdata\\local\\programs\\python\\python37-32\\lib\\site-packages\\cryptography\\hazmat\\backends\\openssl\\dsa.py',
   'PYMODULE'),
  ('cryptography.hazmat.primitives.asymmetric.dsa',
   'c:\\users\\vasiliy.vdovichenko\\appdata\\local\\programs\\python\\python37-32\\lib\\site-packages\\cryptography\\hazmat\\primitives\\asymmetric\\dsa.py',
   'PYMODULE'),
  ('cryptography.hazmat.primitives.asymmetric',
   'c:\\users\\vasiliy.vdovichenko\\appdata\\local\\programs\\python\\python37-32\\lib\\site-packages\\cryptography\\hazmat\\primitives\\asymmetric\\__init__.py',
   'PYMODULE'),
  ('cryptography.hazmat.primitives.asymmetric.dh',
   'c:\\users\\vasiliy.vdovichenko\\appdata\\local\\programs\\python\\python37-32\\lib\\site-packages\\cryptography\\hazmat\\primitives\\asymmetric\\dh.py',
   'PYMODULE'),
  ('cryptography.hazmat.primitives.asymmetric.rsa',
   'c:\\users\\vasiliy.vdovichenko\\appdata\\local\\programs\\python\\python37-32\\lib\\site-packages\\cryptography\\hazmat\\primitives\\asymmetric\\rsa.py',
   'PYMODULE'),
  ('fractions',
   'c:\\users\\vasiliy.vdovichenko\\appdata\\local\\programs\\python\\python37-32\\lib\\fractions.py',
   'PYMODULE'),
  ('cryptography.hazmat.primitives.asymmetric.ec',
   'c:\\users\\vasiliy.vdovichenko\\appdata\\local\\programs\\python\\python37-32\\lib\\site-packages\\cryptography\\hazmat\\primitives\\asymmetric\\ec.py',
   'PYMODULE'),
  ('cryptography.hazmat._oid',
   'c:\\users\\vasiliy.vdovichenko\\appdata\\local\\programs\\python\\python37-32\\lib\\site-packages\\cryptography\\hazmat\\_oid.py',
   'PYMODULE'),
  ('cryptography.x509.oid',
   'c:\\users\\vasiliy.vdovichenko\\appdata\\local\\programs\\python\\python37-32\\lib\\site-packages\\cryptography\\x509\\oid.py',
   'PYMODULE'),
  ('cryptography.hazmat.primitives.hashes',
   'c:\\users\\vasiliy.vdovichenko\\appdata\\local\\programs\\python\\python37-32\\lib\\site-packages\\cryptography\\hazmat\\primitives\\hashes.py',
   'PYMODULE'),
  ('cryptography.hazmat.backends.openssl.decode_asn1',
   'c:\\users\\vasiliy.vdovichenko\\appdata\\local\\programs\\python\\python37-32\\lib\\site-packages\\cryptography\\hazmat\\backends\\openssl\\decode_asn1.py',
   'PYMODULE'),
  ('cryptography.x509.name',
   'c:\\users\\vasiliy.vdovichenko\\appdata\\local\\programs\\python\\python37-32\\lib\\site-packages\\cryptography\\x509\\name.py',
   'PYMODULE'),
  ('cryptography.x509.extensions',
   'c:\\users\\vasiliy.vdovichenko\\appdata\\local\\programs\\python\\python37-32\\lib\\site-packages\\cryptography\\x509\\extensions.py',
   'PYMODULE'),
  ('cryptography.x509.general_name',
   'c:\\users\\vasiliy.vdovichenko\\appdata\\local\\programs\\python\\python37-32\\lib\\site-packages\\cryptography\\x509\\general_name.py',
   'PYMODULE'),
  ('idna',
   'c:\\users\\vasiliy.vdovichenko\\appdata\\local\\programs\\python\\python37-32\\lib\\site-packages\\idna\\__init__.py',
   'PYMODULE'),
  ('idna.core',
   'c:\\users\\vasiliy.vdovichenko\\appdata\\local\\programs\\python\\python37-32\\lib\\site-packages\\idna\\core.py',
   'PYMODULE'),
  ('idna.uts46data',
   'c:\\users\\vasiliy.vdovichenko\\appdata\\local\\programs\\python\\python37-32\\lib\\site-packages\\idna\\uts46data.py',
   'PYMODULE'),
  ('idna.intranges',
   'c:\\users\\vasiliy.vdovichenko\\appdata\\local\\programs\\python\\python37-32\\lib\\site-packages\\idna\\intranges.py',
   'PYMODULE'),
  ('idna.idnadata',
   'c:\\users\\vasiliy.vdovichenko\\appdata\\local\\programs\\python\\python37-32\\lib\\site-packages\\idna\\idnadata.py',
   'PYMODULE'),
  ('idna.package_data',
   'c:\\users\\vasiliy.vdovichenko\\appdata\\local\\programs\\python\\python37-32\\lib\\site-packages\\idna\\package_data.py',
   'PYMODULE'),
  ('cryptography.x509.certificate_transparency',
   'c:\\users\\vasiliy.vdovichenko\\appdata\\local\\programs\\python\\python37-32\\lib\\site-packages\\cryptography\\x509\\certificate_transparency.py',
   'PYMODULE'),
  ('cryptography.hazmat.primitives.constant_time',
   'c:\\users\\vasiliy.vdovichenko\\appdata\\local\\programs\\python\\python37-32\\lib\\site-packages\\cryptography\\hazmat\\primitives\\constant_time.py',
   'PYMODULE'),
  ('asn1crypto.keys',
   'c:\\users\\vasiliy.vdovichenko\\appdata\\local\\programs\\python\\python37-32\\lib\\site-packages\\asn1crypto\\keys.py',
   'PYMODULE'),
  ('asn1crypto',
   'c:\\users\\vasiliy.vdovichenko\\appdata\\local\\programs\\python\\python37-32\\lib\\site-packages\\asn1crypto\\__init__.py',
   'PYMODULE'),
  ('asn1crypto._teletex_codec',
   'c:\\users\\vasiliy.vdovichenko\\appdata\\local\\programs\\python\\python37-32\\lib\\site-packages\\asn1crypto\\_teletex_codec.py',
   'PYMODULE'),
  ('asn1crypto.version',
   'c:\\users\\vasiliy.vdovichenko\\appdata\\local\\programs\\python\\python37-32\\lib\\site-packages\\asn1crypto\\version.py',
   'PYMODULE'),
  ('asn1crypto.util',
   'c:\\users\\vasiliy.vdovichenko\\appdata\\local\\programs\\python\\python37-32\\lib\\site-packages\\asn1crypto\\util.py',
   'PYMODULE'),
  ('asn1crypto._inet',
   'c:\\users\\vasiliy.vdovichenko\\appdata\\local\\programs\\python\\python37-32\\lib\\site-packages\\asn1crypto\\_inet.py',
   'PYMODULE'),
  ('asn1crypto._ordereddict',
   'c:\\users\\vasiliy.vdovichenko\\appdata\\local\\programs\\python\\python37-32\\lib\\site-packages\\asn1crypto\\_ordereddict.py',
   'PYMODULE'),
  ('asn1crypto._iri',
   'c:\\users\\vasiliy.vdovichenko\\appdata\\local\\programs\\python\\python37-32\\lib\\site-packages\\asn1crypto\\_iri.py',
   'PYMODULE'),
  ('asn1crypto.algos',
   'c:\\users\\vasiliy.vdovichenko\\appdata\\local\\programs\\python\\python37-32\\lib\\site-packages\\asn1crypto\\algos.py',
   'PYMODULE'),
  ('asn1crypto._int',
   'c:\\users\\vasiliy.vdovichenko\\appdata\\local\\programs\\python\\python37-32\\lib\\site-packages\\asn1crypto\\_int.py',
   'PYMODULE'),
  ('asn1crypto._perf._big_num_ctypes',
   'c:\\users\\vasiliy.vdovichenko\\appdata\\local\\programs\\python\\python37-32\\lib\\site-packages\\asn1crypto\\_perf\\_big_num_ctypes.py',
   'PYMODULE'),
  ('asn1crypto._perf',
   'c:\\users\\vasiliy.vdovichenko\\appdata\\local\\programs\\python\\python37-32\\lib\\site-packages\\asn1crypto\\_perf\\__init__.py',
   'PYMODULE'),
  ('ctypes.util',
   'c:\\users\\vasiliy.vdovichenko\\appdata\\local\\programs\\python\\python37-32\\lib\\ctypes\\util.py',
   'PYMODULE'),
  ('ctypes._aix',
   'c:\\users\\vasiliy.vdovichenko\\appdata\\local\\programs\\python\\python37-32\\lib\\ctypes\\_aix.py',
   'PYMODULE'),
  ('ctypes.macholib.dyld',
   'c:\\users\\vasiliy.vdovichenko\\appdata\\local\\programs\\python\\python37-32\\lib\\ctypes\\macholib\\dyld.py',
   'PYMODULE'),
  ('ctypes.macholib',
   'c:\\users\\vasiliy.vdovichenko\\appdata\\local\\programs\\python\\python37-32\\lib\\ctypes\\macholib\\__init__.py',
   'PYMODULE'),
  ('ctypes.macholib.dylib',
   'c:\\users\\vasiliy.vdovichenko\\appdata\\local\\programs\\python\\python37-32\\lib\\ctypes\\macholib\\dylib.py',
   'PYMODULE'),
  ('ctypes.macholib.framework',
   'c:\\users\\vasiliy.vdovichenko\\appdata\\local\\programs\\python\\python37-32\\lib\\ctypes\\macholib\\framework.py',
   'PYMODULE'),
  ('asn1crypto._ffi',
   'c:\\users\\vasiliy.vdovichenko\\appdata\\local\\programs\\python\\python37-32\\lib\\site-packages\\asn1crypto\\_ffi.py',
   'PYMODULE'),
  ('asn1crypto._types',
   'c:\\users\\vasiliy.vdovichenko\\appdata\\local\\programs\\python\\python37-32\\lib\\site-packages\\asn1crypto\\_types.py',
   'PYMODULE'),
  ('asn1crypto._errors',
   'c:\\users\\vasiliy.vdovichenko\\appdata\\local\\programs\\python\\python37-32\\lib\\site-packages\\asn1crypto\\_errors.py',
   'PYMODULE'),
  ('asn1crypto._elliptic_curve',
   'c:\\users\\vasiliy.vdovichenko\\appdata\\local\\programs\\python\\python37-32\\lib\\site-packages\\asn1crypto\\_elliptic_curve.py',
   'PYMODULE'),
  ('asn1crypto.core',
   'c:\\users\\vasiliy.vdovichenko\\appdata\\local\\programs\\python\\python37-32\\lib\\site-packages\\asn1crypto\\core.py',
   'PYMODULE'),
  ('asn1crypto.parser',
   'c:\\users\\vasiliy.vdovichenko\\appdata\\local\\programs\\python\\python37-32\\lib\\site-packages\\asn1crypto\\parser.py',
   'PYMODULE'),
  ('ipaddress',
   'c:\\users\\vasiliy.vdovichenko\\appdata\\local\\programs\\python\\python37-32\\lib\\ipaddress.py',
   'PYMODULE'),
  ('cryptography.hazmat.backends.openssl.ocsp',
   'c:\\users\\vasiliy.vdovichenko\\appdata\\local\\programs\\python\\python37-32\\lib\\site-packages\\cryptography\\hazmat\\backends\\openssl\\ocsp.py',
   'PYMODULE'),
  ('cryptography.x509.ocsp',
   'c:\\users\\vasiliy.vdovichenko\\appdata\\local\\programs\\python\\python37-32\\lib\\site-packages\\cryptography\\x509\\ocsp.py',
   'PYMODULE'),
  ('cryptography.x509.base',
   'c:\\users\\vasiliy.vdovichenko\\appdata\\local\\programs\\python\\python37-32\\lib\\site-packages\\cryptography\\x509\\base.py',
   'PYMODULE'),
  ('cryptography.hazmat.backends.interfaces',
   'c:\\users\\vasiliy.vdovichenko\\appdata\\local\\programs\\python\\python37-32\\lib\\site-packages\\cryptography\\hazmat\\backends\\interfaces.py',
   'PYMODULE'),
  ('cryptography.hazmat.backends.openssl.encode_asn1',
   'c:\\users\\vasiliy.vdovichenko\\appdata\\local\\programs\\python\\python37-32\\lib\\site-packages\\cryptography\\hazmat\\backends\\openssl\\encode_asn1.py',
   'PYMODULE'),
  ('cryptography.hazmat.backends.openssl.cmac',
   'c:\\users\\vasiliy.vdovichenko\\appdata\\local\\programs\\python\\python37-32\\lib\\site-packages\\cryptography\\hazmat\\backends\\openssl\\cmac.py',
   'PYMODULE'),
  ('cryptography.hazmat.primitives.mac',
   'c:\\users\\vasiliy.vdovichenko\\appdata\\local\\programs\\python\\python37-32\\lib\\site-packages\\cryptography\\hazmat\\primitives\\mac.py',
   'PYMODULE'),
  ('cryptography.hazmat.backends.openssl.hashes',
   'c:\\users\\vasiliy.vdovichenko\\appdata\\local\\programs\\python\\python37-32\\lib\\site-packages\\cryptography\\hazmat\\backends\\openssl\\hashes.py',
   'PYMODULE'),
  ('cryptography.hazmat.backends.openssl.ciphers',
   'c:\\users\\vasiliy.vdovichenko\\appdata\\local\\programs\\python\\python37-32\\lib\\site-packages\\cryptography\\hazmat\\backends\\openssl\\ciphers.py',
   'PYMODULE'),
  ('cryptography.hazmat.backends.openssl.backend',
   'c:\\users\\vasiliy.vdovichenko\\appdata\\local\\programs\\python\\python37-32\\lib\\site-packages\\cryptography\\hazmat\\backends\\openssl\\backend.py',
   'PYMODULE'),
  ('cryptography.hazmat.primitives.kdf.scrypt',
   'c:\\users\\vasiliy.vdovichenko\\appdata\\local\\programs\\python\\python37-32\\lib\\site-packages\\cryptography\\hazmat\\primitives\\kdf\\scrypt.py',
   'PYMODULE'),
  ('cryptography.hazmat.primitives.kdf',
   'c:\\users\\vasiliy.vdovichenko\\appdata\\local\\programs\\python\\python37-32\\lib\\site-packages\\cryptography\\hazmat\\primitives\\kdf\\__init__.py',
   'PYMODULE'),
  ('cryptography.hazmat.primitives.asymmetric.padding',
   'c:\\users\\vasiliy.vdovichenko\\appdata\\local\\programs\\python\\python37-32\\lib\\site-packages\\cryptography\\hazmat\\primitives\\asymmetric\\padding.py',
   'PYMODULE'),
  ('cryptography.hazmat.backends.openssl.utils',
   'c:\\users\\vasiliy.vdovichenko\\appdata\\local\\programs\\python\\python37-32\\lib\\site-packages\\cryptography\\hazmat\\backends\\openssl\\utils.py',
   'PYMODULE'),
  ('cryptography.hazmat.primitives.asymmetric.utils',
   'c:\\users\\vasiliy.vdovichenko\\appdata\\local\\programs\\python\\python37-32\\lib\\site-packages\\cryptography\\hazmat\\primitives\\asymmetric\\utils.py',
   'PYMODULE'),
  ('cryptography.hazmat.backends.openssl.rsa',
   'c:\\users\\vasiliy.vdovichenko\\appdata\\local\\programs\\python\\python37-32\\lib\\site-packages\\cryptography\\hazmat\\backends\\openssl\\rsa.py',
   'PYMODULE'),
  ('cryptography.hazmat.backends.openssl.x25519',
   'c:\\users\\vasiliy.vdovichenko\\appdata\\local\\programs\\python\\python37-32\\lib\\site-packages\\cryptography\\hazmat\\backends\\openssl\\x25519.py',
   'PYMODULE'),
  ('cryptography.hazmat.primitives.asymmetric.x25519',
   'c:\\users\\vasiliy.vdovichenko\\appdata\\local\\programs\\python\\python37-32\\lib\\site-packages\\cryptography\\hazmat\\primitives\\asymmetric\\x25519.py',
   'PYMODULE'),
  ('cryptography.hazmat.backends.openssl.aead',
   'c:\\users\\vasiliy.vdovichenko\\appdata\\local\\programs\\python\\python37-32\\lib\\site-packages\\cryptography\\hazmat\\backends\\openssl\\aead.py',
   'PYMODULE'),
  ('cryptography.hazmat.primitives.ciphers.aead',
   'c:\\users\\vasiliy.vdovichenko\\appdata\\local\\programs\\python\\python37-32\\lib\\site-packages\\cryptography\\hazmat\\primitives\\ciphers\\aead.py',
   'PYMODULE'),
  ('cryptography.hazmat.backends.openssl.x509',
   'c:\\users\\vasiliy.vdovichenko\\appdata\\local\\programs\\python\\python37-32\\lib\\site-packages\\cryptography\\hazmat\\backends\\openssl\\x509.py',
   'PYMODULE'),
  ('cryptography.hazmat.backends.openssl.dh',
   'c:\\users\\vasiliy.vdovichenko\\appdata\\local\\programs\\python\\python37-32\\lib\\site-packages\\cryptography\\hazmat\\backends\\openssl\\dh.py',
   'PYMODULE'),
  ('cryptography.hazmat.backends.openssl.hmac',
   'c:\\users\\vasiliy.vdovichenko\\appdata\\local\\programs\\python\\python37-32\\lib\\site-packages\\cryptography\\hazmat\\backends\\openssl\\hmac.py',
   'PYMODULE'),
  ('cryptography.hazmat.backends.openssl.ec',
   'c:\\users\\vasiliy.vdovichenko\\appdata\\local\\programs\\python\\python37-32\\lib\\site-packages\\cryptography\\hazmat\\backends\\openssl\\ec.py',
   'PYMODULE'),
  ('cryptography.hazmat.backends.openssl',
   'c:\\users\\vasiliy.vdovichenko\\appdata\\local\\programs\\python\\python37-32\\lib\\site-packages\\cryptography\\hazmat\\backends\\openssl\\__init__.py',
   'PYMODULE'),
  ('cryptography.x509',
   'c:\\users\\vasiliy.vdovichenko\\appdata\\local\\programs\\python\\python37-32\\lib\\site-packages\\cryptography\\x509\\__init__.py',
   'PYMODULE'),
  ('cryptography.__about__',
   'c:\\users\\vasiliy.vdovichenko\\appdata\\local\\programs\\python\\python37-32\\lib\\site-packages\\cryptography\\__about__.py',
   'PYMODULE'),
  ('six',
   'C:\\Users\\vasiliy.vdovichenko\\AppData\\Roaming\\Python\\Python37\\site-packages\\six.py',
   'PYMODULE'),
  ('cryptography.hazmat.primitives.ciphers.algorithms',
   'c:\\users\\vasiliy.vdovichenko\\appdata\\local\\programs\\python\\python37-32\\lib\\site-packages\\cryptography\\hazmat\\primitives\\ciphers\\algorithms.py',
   'PYMODULE'),
  ('cryptography.hazmat.primitives.ciphers',
   'c:\\users\\vasiliy.vdovichenko\\appdata\\local\\programs\\python\\python37-32\\lib\\site-packages\\cryptography\\hazmat\\primitives\\ciphers\\__init__.py',
   'PYMODULE'),
  ('cryptography.hazmat.primitives.ciphers.base',
   'c:\\users\\vasiliy.vdovichenko\\appdata\\local\\programs\\python\\python37-32\\lib\\site-packages\\cryptography\\hazmat\\primitives\\ciphers\\base.py',
   'PYMODULE'),
  ('cryptography.hazmat.primitives.serialization',
   'c:\\users\\vasiliy.vdovichenko\\appdata\\local\\programs\\python\\python37-32\\lib\\site-packages\\cryptography\\hazmat\\primitives\\serialization.py',
   'PYMODULE'),
  ('cryptography.hazmat.primitives',
   'c:\\users\\vasiliy.vdovichenko\\appdata\\local\\programs\\python\\python37-32\\lib\\site-packages\\cryptography\\hazmat\\primitives\\__init__.py',
   'PYMODULE'),
  ('cryptography.hazmat.backends',
   'c:\\users\\vasiliy.vdovichenko\\appdata\\local\\programs\\python\\python37-32\\lib\\site-packages\\cryptography\\hazmat\\backends\\__init__.py',
   'PYMODULE'),
  ('paramiko.agent',
   'c:\\users\\vasiliy.vdovichenko\\appdata\\local\\programs\\python\\python37-32\\lib\\site-packages\\paramiko\\agent.py',
   'PYMODULE'),
  ('paramiko.win_pageant',
   'c:\\users\\vasiliy.vdovichenko\\appdata\\local\\programs\\python\\python37-32\\lib\\site-packages\\paramiko\\win_pageant.py',
   'PYMODULE'),
  ('ctypes.wintypes',
   'c:\\users\\vasiliy.vdovichenko\\appdata\\local\\programs\\python\\python37-32\\lib\\ctypes\\wintypes.py',
   'PYMODULE'),
  ('paramiko.file',
   'c:\\users\\vasiliy.vdovichenko\\appdata\\local\\programs\\python\\python37-32\\lib\\site-packages\\paramiko\\file.py',
   'PYMODULE'),
  ('paramiko.packet',
   'c:\\users\\vasiliy.vdovichenko\\appdata\\local\\programs\\python\\python37-32\\lib\\site-packages\\paramiko\\packet.py',
   'PYMODULE'),
  ('paramiko.message',
   'c:\\users\\vasiliy.vdovichenko\\appdata\\local\\programs\\python\\python37-32\\lib\\site-packages\\paramiko\\message.py',
   'PYMODULE'),
  ('paramiko.sftp_file',
   'c:\\users\\vasiliy.vdovichenko\\appdata\\local\\programs\\python\\python37-32\\lib\\site-packages\\paramiko\\sftp_file.py',
   'PYMODULE'),
  ('paramiko.sftp_si',
   'c:\\users\\vasiliy.vdovichenko\\appdata\\local\\programs\\python\\python37-32\\lib\\site-packages\\paramiko\\sftp_si.py',
   'PYMODULE'),
  ('paramiko.sftp_handle',
   'c:\\users\\vasiliy.vdovichenko\\appdata\\local\\programs\\python\\python37-32\\lib\\site-packages\\paramiko\\sftp_handle.py',
   'PYMODULE'),
  ('paramiko.sftp_attr',
   'c:\\users\\vasiliy.vdovichenko\\appdata\\local\\programs\\python\\python37-32\\lib\\site-packages\\paramiko\\sftp_attr.py',
   'PYMODULE'),
  ('paramiko.sftp_server',
   'c:\\users\\vasiliy.vdovichenko\\appdata\\local\\programs\\python\\python37-32\\lib\\site-packages\\paramiko\\sftp_server.py',
   'PYMODULE'),
  ('paramiko.sftp_client',
   'c:\\users\\vasiliy.vdovichenko\\appdata\\local\\programs\\python\\python37-32\\lib\\site-packages\\paramiko\\sftp_client.py',
   'PYMODULE'),
  ('paramiko.sftp',
   'c:\\users\\vasiliy.vdovichenko\\appdata\\local\\programs\\python\\python37-32\\lib\\site-packages\\paramiko\\sftp.py',
   'PYMODULE'),
  ('paramiko.ed25519key',
   'c:\\users\\vasiliy.vdovichenko\\appdata\\local\\programs\\python\\python37-32\\lib\\site-packages\\paramiko\\ed25519key.py',
   'PYMODULE'),
  ('nacl.signing',
   'c:\\users\\vasiliy.vdovichenko\\appdata\\local\\programs\\python\\python37-32\\lib\\site-packages\\nacl\\signing.py',
   'PYMODULE'),
  ('nacl.utils',
   'c:\\users\\vasiliy.vdovichenko\\appdata\\local\\programs\\python\\python37-32\\lib\\site-packages\\nacl\\utils.py',
   'PYMODULE'),
  ('nacl.public',
   'c:\\users\\vasiliy.vdovichenko\\appdata\\local\\programs\\python\\python37-32\\lib\\site-packages\\nacl\\public.py',
   'PYMODULE'),
  ('nacl.exceptions',
   'c:\\users\\vasiliy.vdovichenko\\appdata\\local\\programs\\python\\python37-32\\lib\\site-packages\\nacl\\exceptions.py',
   'PYMODULE'),
  ('nacl.encoding',
   'c:\\users\\vasiliy.vdovichenko\\appdata\\local\\programs\\python\\python37-32\\lib\\site-packages\\nacl\\encoding.py',
   'PYMODULE'),
  ('nacl',
   'c:\\users\\vasiliy.vdovichenko\\appdata\\local\\programs\\python\\python37-32\\lib\\site-packages\\nacl\\__init__.py',
   'PYMODULE'),
  ('nacl.bindings',
   'c:\\users\\vasiliy.vdovichenko\\appdata\\local\\programs\\python\\python37-32\\lib\\site-packages\\nacl\\bindings\\__init__.py',
   'PYMODULE'),
  ('nacl.bindings.utils',
   'c:\\users\\vasiliy.vdovichenko\\appdata\\local\\programs\\python\\python37-32\\lib\\site-packages\\nacl\\bindings\\utils.py',
   'PYMODULE'),
  ('nacl.bindings.sodium_core',
   'c:\\users\\vasiliy.vdovichenko\\appdata\\local\\programs\\python\\python37-32\\lib\\site-packages\\nacl\\bindings\\sodium_core.py',
   'PYMODULE'),
  ('nacl.bindings.randombytes',
   'c:\\users\\vasiliy.vdovichenko\\appdata\\local\\programs\\python\\python37-32\\lib\\site-packages\\nacl\\bindings\\randombytes.py',
   'PYMODULE'),
  ('nacl.bindings.crypto_sign',
   'c:\\users\\vasiliy.vdovichenko\\appdata\\local\\programs\\python\\python37-32\\lib\\site-packages\\nacl\\bindings\\crypto_sign.py',
   'PYMODULE'),
  ('nacl.bindings.crypto_shorthash',
   'c:\\users\\vasiliy.vdovichenko\\appdata\\local\\programs\\python\\python37-32\\lib\\site-packages\\nacl\\bindings\\crypto_shorthash.py',
   'PYMODULE'),
  ('nacl.bindings.crypto_secretstream',
   'c:\\users\\vasiliy.vdovichenko\\appdata\\local\\programs\\python\\python37-32\\lib\\site-packages\\nacl\\bindings\\crypto_secretstream.py',
   'PYMODULE'),
  ('nacl.bindings.crypto_secretbox',
   'c:\\users\\vasiliy.vdovichenko\\appdata\\local\\programs\\python\\python37-32\\lib\\site-packages\\nacl\\bindings\\crypto_secretbox.py',
   'PYMODULE'),
  ('nacl.bindings.crypto_scalarmult',
   'c:\\users\\vasiliy.vdovichenko\\appdata\\local\\programs\\python\\python37-32\\lib\\site-packages\\nacl\\bindings\\crypto_scalarmult.py',
   'PYMODULE'),
  ('nacl.bindings.crypto_pwhash',
   'c:\\users\\vasiliy.vdovichenko\\appdata\\local\\programs\\python\\python37-32\\lib\\site-packages\\nacl\\bindings\\crypto_pwhash.py',
   'PYMODULE'),
  ('nacl.bindings.crypto_kx',
   'c:\\users\\vasiliy.vdovichenko\\appdata\\local\\programs\\python\\python37-32\\lib\\site-packages\\nacl\\bindings\\crypto_kx.py',
   'PYMODULE'),
  ('nacl.bindings.crypto_hash',
   'c:\\users\\vasiliy.vdovichenko\\appdata\\local\\programs\\python\\python37-32\\lib\\site-packages\\nacl\\bindings\\crypto_hash.py',
   'PYMODULE'),
  ('nacl.bindings.crypto_generichash',
   'c:\\users\\vasiliy.vdovichenko\\appdata\\local\\programs\\python\\python37-32\\lib\\site-packages\\nacl\\bindings\\crypto_generichash.py',
   'PYMODULE'),
  ('nacl.bindings.crypto_box',
   'c:\\users\\vasiliy.vdovichenko\\appdata\\local\\programs\\python\\python37-32\\lib\\site-packages\\nacl\\bindings\\crypto_box.py',
   'PYMODULE'),
  ('nacl.bindings.crypto_aead',
   'c:\\users\\vasiliy.vdovichenko\\appdata\\local\\programs\\python\\python37-32\\lib\\site-packages\\nacl\\bindings\\crypto_aead.py',
   'PYMODULE'),
  ('bcrypt',
   'c:\\users\\vasiliy.vdovichenko\\appdata\\local\\programs\\python\\python37-32\\lib\\site-packages\\bcrypt\\__init__.py',
   'PYMODULE'),
  ('bcrypt.__about__',
   'c:\\users\\vasiliy.vdovichenko\\appdata\\local\\programs\\python\\python37-32\\lib\\site-packages\\bcrypt\\__about__.py',
   'PYMODULE'),
  ('paramiko.ecdsakey',
   'c:\\users\\vasiliy.vdovichenko\\appdata\\local\\programs\\python\\python37-32\\lib\\site-packages\\paramiko\\ecdsakey.py',
   'PYMODULE'),
  ('paramiko.dsskey',
   'c:\\users\\vasiliy.vdovichenko\\appdata\\local\\programs\\python\\python37-32\\lib\\site-packages\\paramiko\\dsskey.py',
   'PYMODULE'),
  ('paramiko.ber',
   'c:\\users\\vasiliy.vdovichenko\\appdata\\local\\programs\\python\\python37-32\\lib\\site-packages\\paramiko\\ber.py',
   'PYMODULE'),
  ('paramiko.rsakey',
   'c:\\users\\vasiliy.vdovichenko\\appdata\\local\\programs\\python\\python37-32\\lib\\site-packages\\paramiko\\rsakey.py',
   'PYMODULE'),
  ('paramiko.server',
   'c:\\users\\vasiliy.vdovichenko\\appdata\\local\\programs\\python\\python37-32\\lib\\site-packages\\paramiko\\server.py',
   'PYMODULE'),
  ('paramiko.ssh_exception',
   'c:\\users\\vasiliy.vdovichenko\\appdata\\local\\programs\\python\\python37-32\\lib\\site-packages\\paramiko\\ssh_exception.py',
   'PYMODULE'),
  ('paramiko.channel',
   'c:\\users\\vasiliy.vdovichenko\\appdata\\local\\programs\\python\\python37-32\\lib\\site-packages\\paramiko\\channel.py',
   'PYMODULE'),
  ('paramiko.buffered_pipe',
   'c:\\users\\vasiliy.vdovichenko\\appdata\\local\\programs\\python\\python37-32\\lib\\site-packages\\paramiko\\buffered_pipe.py',
   'PYMODULE'),
  ('paramiko.ssh_gss',
   'c:\\users\\vasiliy.vdovichenko\\appdata\\local\\programs\\python\\python37-32\\lib\\site-packages\\paramiko\\ssh_gss.py',
   'PYMODULE'),
  ('pyasn1.codec.der.decoder',
   'c:\\users\\vasiliy.vdovichenko\\appdata\\local\\programs\\python\\python37-32\\lib\\site-packages\\pyasn1\\codec\\der\\decoder.py',
   'PYMODULE'),
  ('pyasn1.type',
   'c:\\users\\vasiliy.vdovichenko\\appdata\\local\\programs\\python\\python37-32\\lib\\site-packages\\pyasn1\\type\\__init__.py',
   'PYMODULE'),
  ('pyasn1.type.useful',
   'c:\\users\\vasiliy.vdovichenko\\appdata\\local\\programs\\python\\python37-32\\lib\\site-packages\\pyasn1\\type\\useful.py',
   'PYMODULE'),
  ('pyasn1.compat.string',
   'c:\\users\\vasiliy.vdovichenko\\appdata\\local\\programs\\python\\python37-32\\lib\\site-packages\\pyasn1\\compat\\string.py',
   'PYMODULE'),
  ('pyasn1.compat.dateandtime',
   'c:\\users\\vasiliy.vdovichenko\\appdata\\local\\programs\\python\\python37-32\\lib\\site-packages\\pyasn1\\compat\\dateandtime.py',
   'PYMODULE'),
  ('pyasn1.compat',
   'c:\\users\\vasiliy.vdovichenko\\appdata\\local\\programs\\python\\python37-32\\lib\\site-packages\\pyasn1\\compat\\__init__.py',
   'PYMODULE'),
  ('pyasn1.compat.integer',
   'c:\\users\\vasiliy.vdovichenko\\appdata\\local\\programs\\python\\python37-32\\lib\\site-packages\\pyasn1\\compat\\integer.py',
   'PYMODULE'),
  ('pyasn1.compat.octets',
   'c:\\users\\vasiliy.vdovichenko\\appdata\\local\\programs\\python\\python37-32\\lib\\site-packages\\pyasn1\\compat\\octets.py',
   'PYMODULE'),
  ('pyasn1.compat.binary',
   'c:\\users\\vasiliy.vdovichenko\\appdata\\local\\programs\\python\\python37-32\\lib\\site-packages\\pyasn1\\compat\\binary.py',
   'PYMODULE'),
  ('pyasn1.compat.calling',
   'c:\\users\\vasiliy.vdovichenko\\appdata\\local\\programs\\python\\python37-32\\lib\\site-packages\\pyasn1\\compat\\calling.py',
   'PYMODULE'),
  ('pyasn1.error',
   'c:\\users\\vasiliy.vdovichenko\\appdata\\local\\programs\\python\\python37-32\\lib\\site-packages\\pyasn1\\error.py',
   'PYMODULE'),
  ('pyasn1.type.char',
   'c:\\users\\vasiliy.vdovichenko\\appdata\\local\\programs\\python\\python37-32\\lib\\site-packages\\pyasn1\\type\\char.py',
   'PYMODULE'),
  ('pyasn1.type.namedval',
   'c:\\users\\vasiliy.vdovichenko\\appdata\\local\\programs\\python\\python37-32\\lib\\site-packages\\pyasn1\\type\\namedval.py',
   'PYMODULE'),
  ('pyasn1.type.namedtype',
   'c:\\users\\vasiliy.vdovichenko\\appdata\\local\\programs\\python\\python37-32\\lib\\site-packages\\pyasn1\\type\\namedtype.py',
   'PYMODULE'),
  ('pyasn1.type.base',
   'c:\\users\\vasiliy.vdovichenko\\appdata\\local\\programs\\python\\python37-32\\lib\\site-packages\\pyasn1\\type\\base.py',
   'PYMODULE'),
  ('pyasn1.type.tagmap',
   'c:\\users\\vasiliy.vdovichenko\\appdata\\local\\programs\\python\\python37-32\\lib\\site-packages\\pyasn1\\type\\tagmap.py',
   'PYMODULE'),
  ('pyasn1.type.tag',
   'c:\\users\\vasiliy.vdovichenko\\appdata\\local\\programs\\python\\python37-32\\lib\\site-packages\\pyasn1\\type\\tag.py',
   'PYMODULE'),
  ('pyasn1.type.constraint',
   'c:\\users\\vasiliy.vdovichenko\\appdata\\local\\programs\\python\\python37-32\\lib\\site-packages\\pyasn1\\type\\constraint.py',
   'PYMODULE'),
  ('pyasn1.type.error',
   'c:\\users\\vasiliy.vdovichenko\\appdata\\local\\programs\\python\\python37-32\\lib\\site-packages\\pyasn1\\type\\error.py',
   'PYMODULE'),
  ('pyasn1',
   'c:\\users\\vasiliy.vdovichenko\\appdata\\local\\programs\\python\\python37-32\\lib\\site-packages\\pyasn1\\__init__.py',
   'PYMODULE'),
  ('pyasn1.debug',
   'c:\\users\\vasiliy.vdovichenko\\appdata\\local\\programs\\python\\python37-32\\lib\\site-packages\\pyasn1\\debug.py',
   'PYMODULE'),
  ('pyasn1.codec.cer.decoder',
   'c:\\users\\vasiliy.vdovichenko\\appdata\\local\\programs\\python\\python37-32\\lib\\site-packages\\pyasn1\\codec\\cer\\decoder.py',
   'PYMODULE'),
  ('pyasn1.codec.ber.decoder',
   'c:\\users\\vasiliy.vdovichenko\\appdata\\local\\programs\\python\\python37-32\\lib\\site-packages\\pyasn1\\codec\\ber\\decoder.py',
   'PYMODULE'),
  ('pyasn1.codec.ber.eoo',
   'c:\\users\\vasiliy.vdovichenko\\appdata\\local\\programs\\python\\python37-32\\lib\\site-packages\\pyasn1\\codec\\ber\\eoo.py',
   'PYMODULE'),
  ('pyasn1.codec.ber',
   'c:\\users\\vasiliy.vdovichenko\\appdata\\local\\programs\\python\\python37-32\\lib\\site-packages\\pyasn1\\codec\\ber\\__init__.py',
   'PYMODULE'),
  ('pyasn1.codec.ber.encoder',
   'c:\\users\\vasiliy.vdovichenko\\appdata\\local\\programs\\python\\python37-32\\lib\\site-packages\\pyasn1\\codec\\ber\\encoder.py',
   'PYMODULE'),
  ('pyasn1.codec',
   'c:\\users\\vasiliy.vdovichenko\\appdata\\local\\programs\\python\\python37-32\\lib\\site-packages\\pyasn1\\codec\\__init__.py',
   'PYMODULE'),
  ('pyasn1.codec.cer',
   'c:\\users\\vasiliy.vdovichenko\\appdata\\local\\programs\\python\\python37-32\\lib\\site-packages\\pyasn1\\codec\\cer\\__init__.py',
   'PYMODULE'),
  ('pyasn1.codec.cer.encoder',
   'c:\\users\\vasiliy.vdovichenko\\appdata\\local\\programs\\python\\python37-32\\lib\\site-packages\\pyasn1\\codec\\cer\\encoder.py',
   'PYMODULE'),
  ('pyasn1.codec.der.encoder',
   'c:\\users\\vasiliy.vdovichenko\\appdata\\local\\programs\\python\\python37-32\\lib\\site-packages\\pyasn1\\codec\\der\\encoder.py',
   'PYMODULE'),
  ('pyasn1.codec.der',
   'c:\\users\\vasiliy.vdovichenko\\appdata\\local\\programs\\python\\python37-32\\lib\\site-packages\\pyasn1\\codec\\der\\__init__.py',
   'PYMODULE'),
  ('pyasn1.type.univ',
   'c:\\users\\vasiliy.vdovichenko\\appdata\\local\\programs\\python\\python37-32\\lib\\site-packages\\pyasn1\\type\\univ.py',
   'PYMODULE'),
  ('paramiko.auth_handler',
   'c:\\users\\vasiliy.vdovichenko\\appdata\\local\\programs\\python\\python37-32\\lib\\site-packages\\paramiko\\auth_handler.py',
   'PYMODULE'),
  ('paramiko.client',
   'c:\\users\\vasiliy.vdovichenko\\appdata\\local\\programs\\python\\python37-32\\lib\\site-packages\\paramiko\\client.py',
   'PYMODULE'),
  ('paramiko._winapi',
   'c:\\users\\vasiliy.vdovichenko\\appdata\\local\\programs\\python\\python37-32\\lib\\site-packages\\paramiko\\_winapi.py',
   'PYMODULE'),
  ('paramiko.transport',
   'c:\\users\\vasiliy.vdovichenko\\appdata\\local\\programs\\python\\python37-32\\lib\\site-packages\\paramiko\\transport.py',
   'PYMODULE'),
  ('paramiko.primes',
   'c:\\users\\vasiliy.vdovichenko\\appdata\\local\\programs\\python\\python37-32\\lib\\site-packages\\paramiko\\primes.py',
   'PYMODULE'),
  ('paramiko.kex_gss',
   'c:\\users\\vasiliy.vdovichenko\\appdata\\local\\programs\\python\\python37-32\\lib\\site-packages\\paramiko\\kex_gss.py',
   'PYMODULE'),
  ('paramiko.kex_ecdh_nist',
   'c:\\users\\vasiliy.vdovichenko\\appdata\\local\\programs\\python\\python37-32\\lib\\site-packages\\paramiko\\kex_ecdh_nist.py',
   'PYMODULE'),
  ('paramiko.kex_group14',
   'c:\\users\\vasiliy.vdovichenko\\appdata\\local\\programs\\python\\python37-32\\lib\\site-packages\\paramiko\\kex_group14.py',
   'PYMODULE'),
  ('paramiko.kex_group1',
   'c:\\users\\vasiliy.vdovichenko\\appdata\\local\\programs\\python\\python37-32\\lib\\site-packages\\paramiko\\kex_group1.py',
   'PYMODULE'),
  ('paramiko.kex_gex',
   'c:\\users\\vasiliy.vdovichenko\\appdata\\local\\programs\\python\\python37-32\\lib\\site-packages\\paramiko\\kex_gex.py',
   'PYMODULE'),
  ('paramiko.compress',
   'c:\\users\\vasiliy.vdovichenko\\appdata\\local\\programs\\python\\python37-32\\lib\\site-packages\\paramiko\\compress.py',
   'PYMODULE'),
  ('paramiko.pipe',
   'c:\\users\\vasiliy.vdovichenko\\appdata\\local\\programs\\python\\python37-32\\lib\\site-packages\\paramiko\\pipe.py',
   'PYMODULE'),
  ('paramiko.util',
   'c:\\users\\vasiliy.vdovichenko\\appdata\\local\\programs\\python\\python37-32\\lib\\site-packages\\paramiko\\util.py',
   'PYMODULE'),
  ('paramiko._version',
   'c:\\users\\vasiliy.vdovichenko\\appdata\\local\\programs\\python\\python37-32\\lib\\site-packages\\paramiko\\_version.py',
   'PYMODULE'),
  ('datetime',
   'c:\\users\\vasiliy.vdovichenko\\appdata\\local\\programs\\python\\python37-32\\lib\\datetime.py',
   'PYMODULE')])
