('D:\\python\\ssh\\dist\\mult.exe',
 True,
 False,
 False,
 'D:\\python\\ssh\\ico.ico',
 None,
 False,
 False,
 '<?xml version="1.0" encoding="UTF-8" standalone="yes"?><assembly manifestVersion="1.0" xmlns="urn:schemas-microsoft-com:asm.v1"><assemblyIdentity name="mult" processorArchitecture="x86" type="win32" version="1.0.0.0"/><dependency><dependentAssembly><assemblyIdentity language="*" name="Microsoft.Windows.Common-Controls" processorArchitecture="*" publicKeyToken="6595b64144ccf1df" type="win32" version="6.0.0.0"/><compatibility xmlns="urn:schemas-microsoft-com:compatibility.v1"/></dependentAssembly></dependency><compatibility xmlns="urn:schemas-microsoft-com:compatibility.v1"><application><supportedOS Id="{e2011457-1546-43c5-a5fe-008deee3d3f0}"/><supportedOS Id="{35138b9a-5d96-4fbd-8e2d-a2440225f93a}"/><supportedOS Id="{4a2f28e3-53b9-4441-ba9c-d69d4a4a6e38}"/><supportedOS Id="{1f676c76-80e1-4239-95bb-83d0f6d0da78}"/><supportedOS Id="{8e0f7a12-bfb3-4fe8-b9a5-48fd50a15a9a}"/></application></compatibility></assembly>',
 True,
 'mult.pkg',
 [('PYZ-00.pyz', 'D:\\python\\ssh\\build\\mult\\PYZ-00.pyz', 'PYZ'),
  ('struct',
   'c:\\users\\vasiliy.vdovichenko\\appdata\\local\\programs\\python\\python37-32\\lib\\struct.pyo',
   'PYMODULE'),
  ('pyimod01_os_path',
   'c:\\users\\vasiliy.vdovichenko\\appdata\\local\\programs\\python\\python37-32\\lib\\site-packages\\PyInstaller\\loader\\pyimod01_os_path.pyc',
   'PYMODULE'),
  ('pyimod02_archive',
   'c:\\users\\vasiliy.vdovichenko\\appdata\\local\\programs\\python\\python37-32\\lib\\site-packages\\PyInstaller\\loader\\pyimod02_archive.pyc',
   'PYMODULE'),
  ('pyimod03_importers',
   'c:\\users\\vasiliy.vdovichenko\\appdata\\local\\programs\\python\\python37-32\\lib\\site-packages\\PyInstaller\\loader\\pyimod03_importers.pyc',
   'PYMODULE'),
  ('pyiboot01_bootstrap',
   'c:\\users\\vasiliy.vdovichenko\\appdata\\local\\programs\\python\\python37-32\\lib\\site-packages\\PyInstaller\\loader\\pyiboot01_bootstrap.py',
   'PYSOURCE'),
  ('pyi_rth_multiprocessing',
   'c:\\users\\vasiliy.vdovichenko\\appdata\\local\\programs\\python\\python37-32\\lib\\site-packages\\PyInstaller\\loader\\rthooks\\pyi_rth_multiprocessing.py',
   'PYSOURCE'),
  ('mult', 'D:\\python\\ssh\\mult.py', 'PYSOURCE'),
  ('VCRUNTIME140.dll',
   'c:\\users\\vasiliy.vdovichenko\\appdata\\local\\programs\\python\\python37-32\\VCRUNTIME140.dll',
   'BINARY'),
  ('python37.dll',
   'c:\\users\\vasiliy.vdovichenko\\appdata\\local\\programs\\python\\python37-32\\python37.dll',
   'BINARY'),
  ('_contextvars',
   'c:\\users\\vasiliy.vdovichenko\\appdata\\local\\programs\\python\\python37-32\\DLLs\\_contextvars.pyd',
   'EXTENSION'),
  ('_decimal',
   'c:\\users\\vasiliy.vdovichenko\\appdata\\local\\programs\\python\\python37-32\\DLLs\\_decimal.pyd',
   'EXTENSION'),
  ('_ctypes',
   'c:\\users\\vasiliy.vdovichenko\\appdata\\local\\programs\\python\\python37-32\\DLLs\\_ctypes.pyd',
   'EXTENSION'),
  ('_multiprocessing',
   'c:\\users\\vasiliy.vdovichenko\\appdata\\local\\programs\\python\\python37-32\\DLLs\\_multiprocessing.pyd',
   'EXTENSION'),
  ('_ssl',
   'c:\\users\\vasiliy.vdovichenko\\appdata\\local\\programs\\python\\python37-32\\DLLs\\_ssl.pyd',
   'EXTENSION'),
  ('unicodedata',
   'c:\\users\\vasiliy.vdovichenko\\appdata\\local\\programs\\python\\python37-32\\DLLs\\unicodedata.pyd',
   'EXTENSION'),
  ('pyexpat',
   'c:\\users\\vasiliy.vdovichenko\\appdata\\local\\programs\\python\\python37-32\\DLLs\\pyexpat.pyd',
   'EXTENSION'),
  ('_hashlib',
   'c:\\users\\vasiliy.vdovichenko\\appdata\\local\\programs\\python\\python37-32\\DLLs\\_hashlib.pyd',
   'EXTENSION'),
  ('select',
   'c:\\users\\vasiliy.vdovichenko\\appdata\\local\\programs\\python\\python37-32\\DLLs\\select.pyd',
   'EXTENSION'),
  ('_bz2',
   'c:\\users\\vasiliy.vdovichenko\\appdata\\local\\programs\\python\\python37-32\\DLLs\\_bz2.pyd',
   'EXTENSION'),
  ('_lzma',
   'c:\\users\\vasiliy.vdovichenko\\appdata\\local\\programs\\python\\python37-32\\DLLs\\_lzma.pyd',
   'EXTENSION'),
  ('_socket',
   'c:\\users\\vasiliy.vdovichenko\\appdata\\local\\programs\\python\\python37-32\\DLLs\\_socket.pyd',
   'EXTENSION'),
  ('_cffi_backend',
   'c:\\users\\vasiliy.vdovichenko\\appdata\\local\\programs\\python\\python37-32\\lib\\site-packages\\_cffi_backend.cp37-win32.pyd',
   'EXTENSION'),
  ('cryptography.hazmat.bindings._openssl',
   'c:\\users\\vasiliy.vdovichenko\\appdata\\local\\programs\\python\\python37-32\\lib\\site-packages\\cryptography\\hazmat\\bindings\\_openssl.cp37-win32.pyd',
   'EXTENSION'),
  ('cryptography.hazmat.bindings._constant_time',
   'c:\\users\\vasiliy.vdovichenko\\appdata\\local\\programs\\python\\python37-32\\lib\\site-packages\\cryptography\\hazmat\\bindings\\_constant_time.cp37-win32.pyd',
   'EXTENSION'),
  ('nacl._sodium',
   'c:\\users\\vasiliy.vdovichenko\\appdata\\local\\programs\\python\\python37-32\\lib\\site-packages\\nacl\\_sodium.cp37-win32.pyd',
   'EXTENSION'),
  ('bcrypt._bcrypt',
   'c:\\users\\vasiliy.vdovichenko\\appdata\\local\\programs\\python\\python37-32\\lib\\site-packages\\bcrypt\\_bcrypt.cp37-win32.pyd',
   'EXTENSION'),
  ('_queue',
   'c:\\users\\vasiliy.vdovichenko\\appdata\\local\\programs\\python\\python37-32\\DLLs\\_queue.pyd',
   'EXTENSION'),
  ('libcrypto-1_1.dll',
   'c:\\users\\vasiliy.vdovichenko\\appdata\\local\\programs\\python\\python37-32\\DLLs\\libcrypto-1_1.dll',
   'BINARY'),
  ('libssl-1_1.dll',
   'c:\\users\\vasiliy.vdovichenko\\appdata\\local\\programs\\python\\python37-32\\DLLs\\libssl-1_1.dll',
   'BINARY'),
  ('base_library.zip',
   'D:\\python\\ssh\\build\\mult\\base_library.zip',
   'DATA'),
  ('cryptography-2.4.2-py3.7.egg-info\\METADATA',
   'c:\\users\\vasiliy.vdovichenko\\appdata\\local\\programs\\python\\python37-32\\lib\\site-packages\\cryptography-2.4.2.dist-info\\METADATA',
   'DATA'),
  ('cryptography-2.4.2-py3.7.egg-info\\top_level.txt',
   'c:\\users\\vasiliy.vdovichenko\\appdata\\local\\programs\\python\\python37-32\\lib\\site-packages\\cryptography-2.4.2.dist-info\\top_level.txt',
   'DATA'),
  ('cryptography-2.4.2-py3.7.egg-info\\INSTALLER',
   'c:\\users\\vasiliy.vdovichenko\\appdata\\local\\programs\\python\\python37-32\\lib\\site-packages\\cryptography-2.4.2.dist-info\\INSTALLER',
   'DATA'),
  ('cryptography-2.4.2-py3.7.egg-info\\RECORD',
   'c:\\users\\vasiliy.vdovichenko\\appdata\\local\\programs\\python\\python37-32\\lib\\site-packages\\cryptography-2.4.2.dist-info\\RECORD',
   'DATA'),
  ('cryptography-2.4.2-py3.7.egg-info\\AUTHORS.rst',
   'c:\\users\\vasiliy.vdovichenko\\appdata\\local\\programs\\python\\python37-32\\lib\\site-packages\\cryptography-2.4.2.dist-info\\AUTHORS.rst',
   'DATA'),
  ('cryptography-2.4.2-py3.7.egg-info\\LICENSE.BSD',
   'c:\\users\\vasiliy.vdovichenko\\appdata\\local\\programs\\python\\python37-32\\lib\\site-packages\\cryptography-2.4.2.dist-info\\LICENSE.BSD',
   'DATA'),
  ('cryptography-2.4.2-py3.7.egg-info\\WHEEL',
   'c:\\users\\vasiliy.vdovichenko\\appdata\\local\\programs\\python\\python37-32\\lib\\site-packages\\cryptography-2.4.2.dist-info\\WHEEL',
   'DATA'),
  ('cryptography-2.4.2-py3.7.egg-info\\LICENSE',
   'c:\\users\\vasiliy.vdovichenko\\appdata\\local\\programs\\python\\python37-32\\lib\\site-packages\\cryptography-2.4.2.dist-info\\LICENSE',
   'DATA'),
  ('cryptography-2.4.2-py3.7.egg-info\\LICENSE.APACHE',
   'c:\\users\\vasiliy.vdovichenko\\appdata\\local\\programs\\python\\python37-32\\lib\\site-packages\\cryptography-2.4.2.dist-info\\LICENSE.APACHE',
   'DATA'),
  ('mult.exe.manifest',
   'D:\\python\\ssh\\build\\mult\\mult.exe.manifest',
   'BINARY'),
  ('pyi-windows-manifest-filename mult.exe.manifest', '', 'OPTION')],
 [],
 False,
 False,
 1553604426,
 [('run.exe',
   'c:\\users\\vasiliy.vdovichenko\\appdata\\local\\programs\\python\\python37-32\\lib\\site-packages\\PyInstaller\\bootloader\\Windows-32bit\\run.exe',
   'EXECUTABLE')])
